{
	"additionalNodes": [],
	"additionalParameters": {
		"root": {
			"height": 148,
			"width": 222
		}
	},
	"inputs": [ {
		"command": "Variable",
		"name": "unit"
	}, {
		"command": "Variable",
		"name": "transporter"
	}, {
		"command": "Variable",
		"name": "position"
	} ],
	"outputs": [],
	"properties": {
		"3YE6klhBC1VVW4f8rlpMMFU98INeLDaQ": {
			"height": 110,
			"title": "nota_nep_shared.move",
			"width": 278,
			"x": 503,
			"y": -187
		},
		"CNzwJ0vbPPNnB2AneE1ZvksB3WnSf2Lz": {
			"height": 110,
			"title": "nota_nep_shared.move",
			"width": 278,
			"x": 507,
			"y": 140
		},
		"RcEJ0HkVs5rhExpiwGu0vHg7ek2rqkkK": {
			"height": 72,
			"title": "wait",
			"width": 131,
			"x": 504,
			"y": -69
		},
		"XR10eRQkYRZ70BX9f9UuJ6c30lgSDVYw": {
			"height": 60,
			"title": "sequence",
			"width": 143,
			"x": 255,
			"y": 27
		},
		"YaZ5uES5rbQL1ppwE7WHuqEzpdL4mbgH": {
			"height": 112,
			"title": "nota_nep_shared.unloadUnit",
			"width": 245,
			"x": 506,
			"y": 15
		}
	},
	"roles": [ {
		"categories": [],
		"name": "Role 0"
	} ],
	"root": {
		"children": [ {
			"children": [],
			"id": "3YE6klhBC1VVW4f8rlpMMFU98INeLDaQ",
			"nodeType": "luaCommand",
			"parameters": [ {
				"name": "position",
				"value": "position"
			}, {
				"name": "units",
				"value": "{transporter}"
			}, {
				"name": "fight",
				"value": "false"
			}, {
				"name": "scriptName",
				"value": "nota_nep_shared.move"
			} ],
			"scriptName": "nota_nep_shared.move"
		}, {
			"children": [],
			"id": "RcEJ0HkVs5rhExpiwGu0vHg7ek2rqkkK",
			"nodeType": "wait",
			"parameters": [ {
				"name": "time",
				"value": 2
			} ]
		}, {
			"children": [],
			"id": "YaZ5uES5rbQL1ppwE7WHuqEzpdL4mbgH",
			"nodeType": "luaCommand",
			"parameters": [ {
				"name": "unit",
				"value": "unit"
			}, {
				"name": "transporter",
				"value": "transporter"
			}, {
				"name": "position",
				"value": "position"
			}, {
				"name": "scriptName",
				"value": "nota_nep_shared.unloadUnit"
			} ],
			"scriptName": "nota_nep_shared.unloadUnit"
		}, {
			"children": [],
			"id": "CNzwJ0vbPPNnB2AneE1ZvksB3WnSf2Lz",
			"nodeType": "luaCommand",
			"parameters": [ {
				"name": "position",
				"value": "position - Vec3(200, 0, 200)"
			}, {
				"name": "units",
				"value": "{transporter}"
			}, {
				"name": "fight",
				"value": "false"
			}, {
				"name": "scriptName",
				"value": "nota_nep_shared.move"
			} ],
			"scriptName": "nota_nep_shared.move"
		} ],
		"id": "XR10eRQkYRZ70BX9f9UuJ6c30lgSDVYw",
		"nodeType": "sequence",
		"parameters": []
	}
}